%FSLAX35Y35*%
%MOIN*%
G04 EasyPC Gerber Version 18.0.9 Build 3640 *
%ADD17R,0.10000X0.10000*%
%ADD10C,0.00500*%
%ADD12C,0.01000*%
%ADD75C,0.02362*%
%ADD13C,0.03937*%
%ADD74C,0.06000*%
%ADD73C,0.15748*%
X0Y0D02*
D02*
D10*
X88091Y1931D02*
X269206D01*
G75*
G02X275591Y20736I6384J8319*
G01*
G75*
G02X283909Y16634J-10486*
G01*
Y128569*
X248578*
X256404Y126706*
Y128187*
X274778*
Y109813*
X256404*
Y115669*
X245909Y118168*
G75*
G02X244709Y110471I-6568J-2918*
G01*
Y110029*
G75*
G02X245233Y109365I-5367J-4778*
G01*
X256404Y106706*
Y108187*
X274778*
Y89813*
X256404*
Y95669*
X245909Y98168*
G75*
G02X245813Y92125I-6568J-2918*
G01*
G75*
G02X246528Y89000I-6472J-3125*
G01*
G75*
G02X232154I-7187*
G01*
G75*
G02X232869Y92125I7187*
G01*
G75*
G02X233845Y99882I6472J3125*
G01*
X218891*
G75*
G02X214833Y95250I-10800J5368*
G01*
G75*
G02X219165Y80472I-6743J-10000*
G01*
X224330Y74368*
X234562*
G75*
G02X245520Y65330I4779J-5368*
G01*
X256404Y64812*
Y68187*
X274778*
Y49813*
X256404*
Y54063*
X245059Y54604*
G75*
G02X245848Y53302I-5719J-4354*
G01*
X257781Y48187*
X274778*
Y29813*
X256404*
Y37097*
X241618Y43433*
G75*
G02X238963Y43073I-2278J6815*
G01*
X219878Y27805*
G75*
G02X208091Y13189I-11788J-2555*
G01*
G75*
G02X201348Y35250J12061*
G01*
G75*
G02X197290Y39882I6743J10000*
G01*
X194341*
G75*
G02X183972Y50250J10368*
G01*
Y120250*
G75*
G02X188152Y128569I10368*
G01*
X88091*
Y1931*
X271841Y72750D02*
X259341D01*
Y85250*
X271841*
Y72750*
X220411Y79000D02*
G36*
X224330Y74368D01*
X234562*
G75*
G02X245520Y65330I4779J-5368*
G01*
X256404Y64812*
Y68187*
X274778*
Y49813*
X256404*
Y54063*
X245059Y54604*
G75*
G02X245848Y53302I-5719J-4354*
G01*
X257781Y48187*
X274778*
Y29813*
X256404*
Y37097*
X241618Y43433*
G75*
G02X238963Y43073I-2278J6815*
G01*
X219878Y27805*
G75*
G02X208091Y13189I-11788J-2555*
G01*
G75*
G02X201348Y35250J12061*
G01*
G75*
G02X197290Y39882I6743J10000*
G01*
X194341*
G75*
G02X183972Y50250J10368*
G01*
Y120250*
G75*
G02X188152Y128569I10368*
G01*
X88091*
Y1931*
X269206*
G75*
G02X275591Y20736I6384J8319*
G01*
G75*
G02X283909Y16634J-10486*
G01*
Y79000*
X271841*
Y72750*
X259341*
Y79000*
X220411*
G37*
X259341D02*
G36*
Y85250D01*
X271841*
Y79000*
X283909*
Y128569*
X248578*
X256404Y126706*
Y128187*
X274778*
Y109813*
X256404*
Y115669*
X245909Y118168*
G75*
G02X244709Y110471I-6568J-2918*
G01*
Y110029*
G75*
G02X245233Y109365I-5367J-4778*
G01*
X256404Y106706*
Y108187*
X274778*
Y89813*
X256404*
Y95669*
X245909Y98168*
G75*
G02X245813Y92125I-6568J-2918*
G01*
G75*
G02X246528Y89000I-6472J-3125*
G01*
G75*
G02X232154I-7187*
G01*
G75*
G02X232869Y92125I7187*
G01*
G75*
G02X233845Y99882I6472J3125*
G01*
X218891*
G75*
G02X214833Y95250I-10800J5368*
G01*
G75*
G02X219165Y80472I-6743J-10000*
G01*
X220411Y79000*
X259341*
G37*
X197290Y50618D02*
G75*
G02X204635Y56806I10800J-5368D01*
G01*
G75*
G02Y73694I3455J8444*
G01*
G75*
G02X201348Y95250I3455J11556*
G01*
G75*
G02X208091Y117311I6743J10000*
G01*
G75*
G02X218891Y110618J-12061*
G01*
X233845*
G75*
G02Y119882I5495J4632*
G01*
X196564*
X194709Y118026*
Y52474*
X196564Y50618*
X197290*
G36*
G75*
G02X204635Y56806I10800J-5368*
G01*
G75*
G02Y73694I3455J8444*
G01*
G75*
G02X201348Y95250I3455J11556*
G01*
G75*
G02X208091Y117311I6743J10000*
G01*
G75*
G02X218891Y110618J-12061*
G01*
X233845*
G75*
G02Y119882I5495J4632*
G01*
X196564*
X194709Y118026*
Y52474*
X196564Y50618*
X197290*
G37*
X211546Y56806D02*
G75*
G02X219458Y41219I-3456J-11556D01*
G01*
X232256Y51457*
G75*
G02X234178Y55250I7085J-1207*
G01*
G75*
G02X232999Y63632I5162J5000*
G01*
X221841*
G75*
G02X217743Y65533J5369*
G01*
X217163Y66217*
G75*
G02X211546Y56806I-9073J-967*
G01*
G36*
G75*
G02X219458Y41219I-3456J-11556*
G01*
X232256Y51457*
G75*
G02X234178Y55250I7085J-1207*
G01*
G75*
G02X232999Y63632I5162J5000*
G01*
X221841*
G75*
G02X217743Y65533J5369*
G01*
X217163Y66217*
G75*
G02X211546Y56806I-9073J-967*
G01*
G37*
D02*
D12*
X201841Y95250D02*
X221841D01*
D02*
D13*
X203915Y61074D02*
X200424Y57583D01*
X203915Y69426D02*
X200424Y72917D01*
X212266Y61074D02*
X215757Y57583D01*
X262559Y79000D02*
X257622D01*
X265591Y75969D02*
Y71031D01*
Y82031D02*
Y86969D01*
X268622Y79000D02*
X273559D01*
D02*
D17*
X20591Y35250D03*
Y55250D03*
Y75250D03*
Y95250D03*
X265591Y39000D03*
Y59000D03*
Y79000D03*
Y99000D03*
Y119000D03*
D02*
D73*
X68091Y25250D03*
Y45250D03*
Y85250D03*
Y105250D03*
X208091Y25250D03*
Y45250D03*
Y65250D03*
Y85250D03*
Y105250D03*
D02*
D74*
X239341Y50250D03*
Y60250D03*
Y69000D03*
Y89000D03*
Y95250D03*
Y105250D03*
Y115250D03*
Y125250D03*
D02*
D75*
X20591Y95250D02*
X68091Y105250D01*
Y25250D02*
X20591Y35250D01*
X68091Y45250D02*
X20591Y55250D01*
X68091Y85250D02*
X20591Y75250D01*
X208091Y45250D02*
X194341D01*
G75*
G02X189341Y50250J5000*
G01*
Y120250*
G75*
G02X194341Y125250I5000*
G01*
X239341*
X208091Y65250D02*
X201841D01*
G75*
G02X195591Y71500J6250*
G01*
Y89000*
G75*
G02X201841Y95250I6250*
G01*
X208091Y105250D02*
X239341D01*
X221841Y95250D02*
G75*
G02X228091Y89000J-6250D01*
G01*
Y84000*
G75*
G03X233091Y79000I5000*
G01*
X265591*
X239341Y50250D02*
X265591Y39000D01*
X239341Y50250D02*
X208091Y25250D01*
X239341Y60250D02*
X265591Y59000D01*
X239341Y69000D02*
X221841D01*
X208091Y85250*
X239341Y69000D02*
Y60250D01*
Y95250D02*
Y89000D01*
Y105250D02*
X265591Y99000D01*
X239341Y115250D02*
Y105250D01*
Y125250D02*
X265591Y119000D01*
X0Y0D02*
M02*
