%FSLAX35Y35*%
%MOIN*%
G04 EasyPC Gerber Version 18.0.9 Build 3640 *
%ADD79R,0.11000X0.11000*%
%ADD78C,0.07000*%
%ADD77C,0.13598*%
%ADD76C,0.16748*%
X0Y0D02*
D02*
D76*
X68091Y25250D03*
Y45250D03*
Y85250D03*
Y105250D03*
X208091Y25250D03*
Y45250D03*
Y65250D03*
Y85250D03*
Y105250D03*
D02*
D77*
X10591Y10250D03*
Y120250D03*
X275591Y10250D03*
D02*
D78*
X239341Y50250D03*
Y60250D03*
Y69000D03*
Y89000D03*
Y95250D03*
Y105250D03*
Y115250D03*
Y125250D03*
D02*
D79*
X20591Y35250D03*
Y55250D03*
Y75250D03*
Y95250D03*
X265591Y39000D03*
Y59000D03*
Y79000D03*
Y99000D03*
Y119000D03*
X0Y0D02*
M02*
