G81
M48
INCH
T1C000.02500
T2C000.12598
%
T002
X00010591Y00010250
X00010591Y00120250
X00275591Y00010250
T001
G00X00000591Y00130250
M15
G01X00000591Y00000250
X00285591Y00000250
X00285591Y00130250
X00000591Y00130250
M17
M30
