%FSLAX35Y35*%
%MOIN*%
G04 EasyPC Gerber Version 18.0.9 Build 3640 *
%ADD10C,0.00500*%
%ADD14C,0.10000*%
X0Y0D02*
D02*
D10*
X20591Y19937D02*
X22153Y16187D01*
X23716Y19937*
X20591Y129937D02*
X22153Y126187D01*
X23716Y129937*
X30591Y41187D02*
Y44937D01*
Y43063D02*
X33716D01*
Y41187D02*
Y44937D01*
X30591Y61187D02*
Y64937D01*
Y63063D02*
X33716D01*
Y61187D02*
Y64937D01*
X30591Y81187D02*
Y84937D01*
Y83063D02*
X33716D01*
Y81187D02*
Y84937D01*
X30591Y101187D02*
Y104937D01*
Y103063D02*
X33716D01*
Y101187D02*
Y104937D01*
X78091Y32437D02*
Y33687D01*
X78403Y34313*
X78716Y34625*
X79341Y34937*
X79966*
X80591Y34625*
X80903Y34313*
X81216Y33687*
Y32437*
X80903Y31813*
X80591Y31500*
X79966Y31187*
X79341*
X78716Y31500*
X78403Y31813*
X78091Y32437*
Y52437D02*
Y53687D01*
X78403Y54313*
X78716Y54625*
X79341Y54937*
X79966*
X80591Y54625*
X80903Y54313*
X81216Y53687*
Y52437*
X80903Y51813*
X80591Y51500*
X79966Y51187*
X79341*
X78716Y51500*
X78403Y51813*
X78091Y52437*
Y92437D02*
Y93687D01*
X78403Y94313*
X78716Y94625*
X79341Y94937*
X79966*
X80591Y94625*
X80903Y94313*
X81216Y93687*
Y92437*
X80903Y91813*
X80591Y91500*
X79966Y91187*
X79341*
X78716Y91500*
X78403Y91813*
X78091Y92437*
Y112437D02*
Y113687D01*
X78403Y114313*
X78716Y114625*
X79341Y114937*
X79966*
X80591Y114625*
X80903Y114313*
X81216Y113687*
Y112437*
X80903Y111813*
X80591Y111500*
X79966Y111187*
X79341*
X78716Y111500*
X78403Y111813*
X78091Y112437*
X218091Y32437D02*
Y33687D01*
X218403Y34313*
X218716Y34625*
X219341Y34937*
X219966*
X220591Y34625*
X220903Y34313*
X221216Y33687*
Y32437*
X220903Y31813*
X220591Y31500*
X219966Y31187*
X219341*
X218716Y31500*
X218403Y31813*
X218091Y32437*
Y52437D02*
Y53687D01*
X218403Y54313*
X218716Y54625*
X219341Y54937*
X219966*
X220591Y54625*
X220903Y54313*
X221216Y53687*
Y52437*
X220903Y51813*
X220591Y51500*
X219966Y51187*
X219341*
X218716Y51500*
X218403Y51813*
X218091Y52437*
Y72437D02*
Y73687D01*
X218403Y74313*
X218716Y74625*
X219341Y74937*
X219966*
X220591Y74625*
X220903Y74313*
X221216Y73687*
Y72437*
X220903Y71813*
X220591Y71500*
X219966Y71187*
X219341*
X218716Y71500*
X218403Y71813*
X218091Y72437*
Y92437D02*
Y93687D01*
X218403Y94313*
X218716Y94625*
X219341Y94937*
X219966*
X220591Y94625*
X220903Y94313*
X221216Y93687*
Y92437*
X220903Y91813*
X220591Y91500*
X219966Y91187*
X219341*
X218716Y91500*
X218403Y91813*
X218091Y92437*
Y112437D02*
Y113687D01*
X218403Y114313*
X218716Y114625*
X219341Y114937*
X219966*
X220591Y114625*
X220903Y114313*
X221216Y113687*
Y112437*
X220903Y111813*
X220591Y111500*
X219966Y111187*
X219341*
X218716Y111500*
X218403Y111813*
X218091Y112437*
X249341Y56187D02*
Y59937D01*
X252466*
X251841Y58063D02*
X249341D01*
Y66187D02*
Y69937D01*
X252466*
X251841Y68063D02*
X249341D01*
Y74937D02*
Y78687D01*
X252466*
X251841Y76813D02*
X249341D01*
Y94937D02*
Y98687D01*
X252466*
X251841Y96813D02*
X249341D01*
Y101187D02*
Y104937D01*
X252466*
X251841Y103063D02*
X249341D01*
Y111187D02*
Y114937D01*
X252466*
X251841Y113063D02*
X249341D01*
Y121187D02*
Y124937D01*
X252466*
X251841Y123063D02*
X249341D01*
Y131187D02*
Y134937D01*
X252466*
X251841Y133063D02*
X249341D01*
X275591Y44937D02*
Y48687D01*
Y46813D02*
X278716D01*
Y44937D02*
Y48687D01*
X275591Y64937D02*
Y68687D01*
Y66813D02*
X278716D01*
Y64937D02*
Y68687D01*
X275591Y84937D02*
Y88687D01*
Y86813D02*
X278716D01*
Y84937D02*
Y88687D01*
X275591Y104937D02*
Y108687D01*
Y106813D02*
X278716D01*
Y104937D02*
Y108687D01*
X275591Y124937D02*
Y128687D01*
Y126813D02*
X278716D01*
Y124937D02*
Y128687D01*
X285591Y19937D02*
X287153Y16187D01*
X288716Y19937*
D02*
D14*
X10591Y10250D03*
Y120250D03*
X20591Y35250D03*
Y55250D03*
Y75250D03*
Y95250D03*
X68091Y25250D03*
Y45250D03*
Y85250D03*
Y105250D03*
X208091Y25250D03*
Y45250D03*
Y65250D03*
Y85250D03*
Y105250D03*
X239341Y50250D03*
Y60250D03*
Y69000D03*
Y89000D03*
Y95250D03*
Y105250D03*
Y115250D03*
Y125250D03*
X265591Y39000D03*
Y59000D03*
Y79000D03*
Y99000D03*
Y119000D03*
X275591Y10250D03*
X0Y0D02*
M02*
